0:00:01.196115658
0:00:01.133115874
0:00:01.131822674
0:00:01.287189802
0:00:01.355301883
0:00:01.356285580
0:00:01.494516997
0:00:01.273312451
0:00:01.214477133
0:00:01.283120826
0:00:01.221462393
0:00:01.276417605
0:00:01.221912314
0:00:01.274778175
0:00:01.214130004
0:00:01.402397357
0:00:01.133565585
0:00:01.336527914
0:00:01.399257532
0:00:01.457699407
0:00:01.288246844
0:00:01.330692177
0:00:01.337202666
0:00:01.509650866
0:00:01.416089467
0:00:01.374572212
0:00:01.445281295
0:00:01.274382682
0:00:01.222575417
0:00:01.274148247
0:00:01.215269764
0:00:01.287109809
0:00:01.214771146
0:00:01.279808389
0:00:01.280203049
0:00:01.222061792
0:00:01.224065894
0:00:01.284016771
0:00:01.224735017
0:00:01.281410206
0:00:01.220939232
0:00:01.281454628
0:00:01.222649302
0:00:01.225066802
0:00:01.222242914
0:00:01.225545692
0:00:01.226676849
0:00:01.225523550
0:00:01.281709528
0:00:01.223663398
0:00:01.275534571
0:00:01.214163806
0:00:01.288338322
0:00:01.219886024
0:00:01.284524669
0:00:01.222086094
0:00:01.283664701
0:00:01.221234391
0:00:01.282300314
0:00:01.213104167
0:00:01.284432784
0:00:01.221611322
0:00:01.282223017
0:00:01.224159675
0:00:01.283081776
0:00:01.222822679
0:00:01.223249336
0:00:01.340948617
0:00:01.282368620
0:00:01.342530592
0:00:01.214490395
0:00:01.282318618
0:00:01.213725992
0:00:01.282701485
0:00:01.223945185
0:00:01.283786748
0:00:01.213568590
0:00:01.279857045
0:00:01.287969815
0:00:01.223285159
0:00:01.285526882
0:00:01.283966923
0:00:01.222575355
0:00:01.131518541
0:00:01.213271960
0:00:01.223689323
0:00:01.283288092
0:00:01.285573241
0:00:01.223326331
0:00:01.222539210
0:00:01.288934546
0:00:01.221358704
0:00:01.280965807
0:00:01.282035582
0:00:01.226763949
0:00:01.133784908
0:00:01.185470607
0:00:01.346217093
0:00:01.127049292
0:00:01.224352362
0:00:01.280276765
